vloglab/Lab3b/LBP.vcd
$date
	Mon Oct 17 12:55:01 2022
$end
$version
	Icarus Verilog
$end
$timescale
	10fs
$end
$scope module FIR_test $end
$var wire 18 ! Dout [17:0] $end
$var reg 8 " Din [7:0] $end
$var reg 1 # clk $end
$var reg 1 $ reset $end
$var real 1 % cycle $end
$var integer 32 & k [31:0] $end
$scope module dut $end
$var wire 8 ' Din [7:0] $end
$var wire 1 # clk $end
$var wire 1 $ reset $end
$var wire 18 ( Dout [17:0] $end
$var parameter 32 ) b0 $end
$var parameter 32 * b1 $end
$var parameter 32 + b2 $end
$var parameter 32 , b3 $end
$var parameter 32 - b4 $end
$var parameter 32 . b5 $end
$var parameter 32 / b6 $end
$var parameter 32 0 b7 $end
$var parameter 32 1 b8 $end
$var reg 8 2 D0 [7:0] $end
$var reg 8 3 D1 [7:0] $end
$var reg 8 4 D2 [7:0] $end
$var reg 8 5 D3 [7:0] $end
$var reg 8 6 D4 [7:0] $end
$var reg 8 7 D5 [7:0] $end
$var reg 8 8 D6 [7:0] $end
$var reg 8 9 D7 [7:0] $end
$upscope $end
$upscope $end
$enddefinitions $end
$comment Show the parameter values. $end
$dumpall
b111 1
b10001 0
b100000 /
b101110 .
b110100 -
b101110 ,
b100000 +
b10001 *
b111 )
$end
#0
$dumpvars
bx 9
bx 8
bx 7
bx 6
bx 5
bx 4
bx 3
bx 2
bx (
b0 '
bx &
r5 %
0$
0#
b0 "
bx !
$end
#1000
1$
#2500
bx !
bx (
bx 9
bx 8
bx 7
bx 6
bx 5
bx 4
bx 3
b0 2
1#
#5000
0#
#7500
bx !
bx (
bx 9
bx 8
bx 7
bx 6
bx 5
bx 4
b0 3
1#
#8500
0$
#10000
0#
#12500
b0 4
1#
#13500
b1 "
b1 '
#15000
0#
#17500
b0 5
b1 2
1#
#18500
b0 &
b0 "
b0 '
#20000
0#
#22500
b0 6
b1 3
b0 2
b1 &
1#
#25000
0#
#27500
b0 7
b1 4
b0 3
b10 &
1#
#30000
0#
#32500
b0 8
b1 5
b0 4
b11 &
1#
#35000
0#
#37500
b110100 !
b110100 (
b0 9
b1 6
b0 5
b100 &
1#
#40000
0#
#42500
b1 7
b100000 !
b100000 (
b0 6
b101 &
1#
#45000
0#
#47500
b1 8
b10001 !
b10001 (
b0 7
b110 &
1#
#50000
0#
#52500
b1 9
b111 !
b111 (
b0 8
b111 &
1#
#55000
0#
#57500
b0 !
b0 (
b0 9
b1000 &
1#
#60000
0#
#62500
b1001 &
1#
#65000
0#
#67500
b1010 &
1#
#70000
0#
#72500
b1011 &
1#
#75000
0#
#77500
b1100 &
1#
#80000
0#
#82500
b1101 &
1#
#85000
0#
#87500
b1110 &
1#
#90000
0#
#92500
b1111 &
1#
#95000
0#
#97500
b10000 &
1#
#98500
b111 !
b111 (
b1 "
b1 '
#100000
0#
#102500
b1 2
1#
#103500
b0 !
b0 (
b0 "
b0 '
#105000
0#
#107500
b10001 !
b10001 (
b1 3
b0 2
1#
#110000
0#
#112500
b1 4
b100000 !
b100000 (
b0 3
1#
#115000
0#
#117500
b1 5
b101110 !
b101110 (
b0 4
1#
#118500
b0 &
1$
#120000
0#
#122500
b1 6
b110100 !
b110100 (
b0 5
b1 &
1#
#125000
0#
#127500
b1 7
b100000 !
b100000 (
b0 6
b10 &
1#
#130000
0#
#132500
b1 8
b10001 !
b10001 (
b0 7
b11 &
1#
#135000
0#
#137500
b1 9
b111 !
b111 (
b0 8
b100 &
1#
#140000
0#
#142500
b0 !
b0 (
b0 9
b101 &
1#
#145000
0#
#147500
b110 &
1#
#150000
0#
#152500
b111 &
1#
#155000
0#
#157500
b1000 &
1#
#160000
0#
#162500
b1001 &
1#
#165000
0#
#167500
b1010 &
1#
#170000
0#
#172500
b1011 &
1#
#175000
0#
#177500
b1100 &
1#
#180000
0#
#182500
b1101 &
1#
#185000
0#
#187500
b1110 &
1#
#190000
0#
#192500
b1111 &
1#
#195000
0#
#197500
b10000 &
1#
#198500
0$
#200000
0#
#202500
1#
#205000
0#
#207500
1#
#208500
b10101111 !
b10101111 (
b11001 "
b11001 '
#210000
0#
#212500
b11001 2
1#
#213500
b11011001111 !
b11011001111 (
b11111001 "
b11111001 '
#215000
0#
#217500
b100001111000 !
b100001111000 (
b11001 3
b11111001 2
1#
#218500
b1100111111 !
b1100111111 (
b111010 "
b111010 '
#220000
0#
#222500
b11001 4
b1010100111111 !
b1010100111111 (
b11111001 3
b111010 2
1#
#223500
b1001110110000 !
b1001110110000 (
b1 "
b1 '
#225000
0#
#227500
b11001 5
b11111001 4
b10011101111111 !
b10011101111111 (
b111010 3
b1 2
1#
#228500
b10100011011101 !
b10100011011101 (
b110011 "
b110011 '
#230000
0#
#232500
b11001 6
b11111001 5
b111010 4
b11101010001000 !
b11101010001000 (
b1 3
b110011 2
1#
#233500
b11100111001011 !
b11100111001011 (
b11000 "
b11000 '
#235000
0#
#237500
b11001 7
b11111001 6
b111010 5
b1 4
b100010001001011 !
b100010001001011 (
b110011 3
b11000 2
1#
#238500
b100001111110111 !
b100001111110111 (
b1100 "
b1100 '
#240000
0#
#242500
b11001 8
b11111001 7
b111010 6
b1 5
b110011 4
b11010100001011 !
b11010100001011 (
b11000 3
b1100 2
1#
#243500
b11010111000001 !
b11010111000001 (
b100110 "
b100110 '
#245000
0#
#247500
b11001 9
b11111001 8
b111010 7
b1 6
b110011 5
b11000 4
b10011010101100 !
b10011010101100 (
b1100 3
b100110 2
1#
#248500
b10101111101100 !
b10101111101100 (
b11100110 "
b11100110 '
#250000
0#
#252500
b11111001 9
b111010 8
b1 7
b110011 6
b11000 5
b1100 4
b10001111000101 !
b10001111000101 (
b100110 3
b11100110 2
1#
#253500
b1111000101010 !
b1111000101010 (
b11001 "
b11001 '
#255000
0#
#257500
b111010 9
b1 8
b110011 7
b11000 6
b1100 5
b100110 4
b10001111000100 !
b10001111000100 (
b11100110 3
b11001 2
1#
#258500
b10100100000100 !
b10100100000100 (
b11011001 "
b11011001 '
#260000
0#
#262500
b1 9
b110011 8
b11000 7
b1100 6
b100110 5
b11100110 4
b11010000000110 !
b11010000000110 (
b11001 3
b11011001 2
1#
#263500
b11010010111100 !
b11010010111100 (
b11110011 "
b11110011 '
#265000
0#
#267500
b110011 9
b11000 8
b1100 7
b100110 6
b11100110 5
b11001 4
b100110110110111 !
b100110110110111 (
b11011001 3
b11110011 2
1#
#268500
b100110101101010 !
b100110101101010 (
b11101000 "
b11101000 '
#270000
0#
#272500
b11000 9
b1100 8
b100110 7
b11100110 6
b11001 5
b11011001 4
b110101100000101 !
b110101100000101 (
b11110011 3
b11101000 2
1#
#273500
b110101000111010 !
b110101000111010 (
b11001011 "
b11001011 '
#275000
0#
#277500
b1100 9
b100110 8
b11100110 7
b11001 6
b11011001 5
b11110011 4
b111111100000001 !
b111111100000001 (
b11101000 3
b11001011 2
1#
#278500
b1000000001100110 !
b1000000001100110 (
b11111110 "
b11111110 '
#280000
0#
#282500
b100110 9
b11100110 8
b11001 7
b11011001 6
b11110011 5
b11101000 4
b1001110010011011 !
b1001110010011011 (
b11001011 3
b11111110 2
1#
#283500
b1001110000011101 !
b1001110000011101 (
b11101100 "
b11101100 '
#285000
0#
#287500
b11100110 9
b11001 8
b11011001 7
b11110011 6
b11101000 5
b11001011 4
b1010111011010001 !
b1010111011010001 (
b11111110 3
b11101100 2
1#
#288500
b1010100010000111 !
b1010100010000111 (
b110 "
b110 '
#290000
0#
#292500
b11001 9
b11011001 8
b11110011 7
b11101000 6
b11001011 5
b11111110 4
b1011000010101000 !
b1011000010101000 (
b11101100 3
b110 2
1#
#293500
b1011011011001000 !
b1011011011001000 (
b11100110 "
b11100110 '
#295000
0#
#297500
b11011001 9
b11110011 8
b11101000 7
b11001011 6
b11111110 5
b11101100 4
b1010111000100010 !
b1010111000100010 (
b110 3
b11100110 2
1#
#298500
b1010011111011111 !
b1010011111011111 (
b1 "
b1 '
#300000
0#
#302500
b11110011 9
b11101000 8
b11001011 7
b11111110 6
b11101100 5
b110 4
b1001110101111010 !
b1001110101111010 (
b11100110 3
b1 2
1#
#303500
b0 &
b1001110101110011 !
b1001110101110011 (
b0 "
b0 '
#305000
0#
#307500
b11101000 9
b11001011 8
b11111110 7
b11101100 6
b110 5
b11100110 4
b1000000101101000 !
b1000000101101000 (
b1 3
b0 2
b1 &
1#
#310000
0#
#312500
b11001011 9
b11111110 8
b11101100 7
b110 6
b11100110 5
b1 4
b101111010010111 !
b101111010010111 (
b0 3
b10 &
1#
#315000
0#
#317500
b11111110 9
b11101100 8
b110 7
b11100110 6
b1 5
b100011001000100 !
b100011001000100 (
b0 4
b11 &
1#
#320000
0#
#322500
b11101100 9
b110 8
b11100110 7
b1 6
b10001111001110 !
b10001111001110 (
b0 5
b100 &
1#
#325000
0#
#327500
b110 9
b11100110 8
b1 7
b111110010000 !
b111110010000 (
b0 6
b101 &
1#
#330000
0#
#332500
b11100110 9
b1 8
b11001011011 !
b11001011011 (
b0 7
b110 &
1#
#335000
0#
#337500
b1 9
b111 !
b111 (
b0 8
b111 &
1#
#340000
0#
#342500
b0 !
b0 (
b0 9
b1000 &
1#
#345000
0#
#347500
b1001 &
1#
#350000
0#
#352500
b1010 &
1#
#355000
0#
#357500
b1011 &
1#
#360000
0#
#362500
b1100 &
1#
#365000
0#
#367500
b1101 &
1#
#370000
0#
#372500
b1110 &
1#
#375000
0#
#377500
b1111 &
1#
#380000
0#
#382500
b10000 &
1#
#385000
0#
#387500
b10001 &
1#
#390000
0#
#392500
b10010 &
1#
#395000
0#
#397500
b10011 &
1#
#400000
0#
#402500
b10100 &
1#
#405000
0#
#407500
b10101 &
1#
#410000
0#
#412500
b10110 &
1#
#415000
0#
#417500
b10111 &
1#
#420000
0#
#422500
b11000 &
1#
#425000
0#
#427500
b11001 &
1#
#430000
0#
#432500
b11010 &
1#
